// Jest Snapshot v1, https://goo.gl/fbAQLP

exports[`<EntityHeader /> with gene entity with gene data 1`] = `
Array [
  <h3
    className="mb-2 text-3xl font-bold"
  >
    AAAS
  </h3>,
  <div
    className="text-xl mb-4"
  >
    <div
      className="mb-1"
    >
      aladin WD repeat nucleoporin
    </div>
    <div
      className="text-nhs-blue mb-2"
    >
      OMIM:
       
      <span>
        <a
          className="hover:underline"
          href="https://omim.org/entry/605378"
          rel="noreferrer"
          target="_blank"
        >
          605378
        </a>
      </span>
    </div>
    <div>
      <a
        className="font-light text-nhs-blue hover:underline"
        href="https://panelapp.genomicsengland.co.uk/panels/entities/AAAS"
        rel="noreferrer"
        target="_blank"
      >
        See this entity in PanelApp
      </a>
    </div>
  </div>,
]
`;

exports[`<EntityHeader /> with region entity without gene data 1`] = `
Array [
  <h3
    className="mb-2 text-3xl font-bold"
  >
    ISCA-37400-Gain
  </h3>,
  <div
    className="text-xl mb-4"
  >
    16p11.2 recurrent region (includes TBX6) (proximal region) (BP4-BP5) Gain
    <div>
      <a
        className="font-light text-nhs-blue hover:underline"
        href="https://panelapp.genomicsengland.co.uk/panels/entities/ISCA-37400-Gain"
        rel="noreferrer"
        target="_blank"
      >
        See this entity in PanelApp
      </a>
    </div>
  </div>,
]
`;
