// Jest Snapshot v1, https://goo.gl/fbAQLP

exports[`<RelevantDisorders /> 1`] = `
Array [
  <span>
    <span
      className="font-semibold"
    >
      R100
    </span>
    , 
  </span>,
  <span>
    <span
      className="font-semibold"
    >
      R101
    </span>
  </span>,
]
`;
